{
  "parent": "minecraft:block/cube_bottom_top",
  "textures": {
    "top": "kube:block/autumntree1_top",
    "bottom": "kube:block/autumntree1_bottom",
    "side": "kube:block/autumntree1_main"
  }
}
